TestResults/scheduler_1ms_03032024.vcd
$comment 
  OLS Java Client
$end
$date 
  3 Mar, 2024 12:48:48 AM
$end
$version 
  VCD exporter v1.1
$end
$timescale 
  10 us
$end
$scope 
  module logic
$end
$var wire 1 ! task1 $end
$var wire 1 " task2 $end
$var wire 1 # task3 $end
$var wire 1 $ Channel-3 $end
$var wire 1 % Channel-4 $end
$var wire 1 & Channel-5 $end
$var wire 1 ' Channel-6 $end
$var wire 1 ( Channel-7 $end
$upscope $end
$enddefinitions $end
$dumpvars
x!
x"
x#
x$
x%
x&
x'
x(
$end
#0
0!
0"
0#
1$
1%
1&
1'
1(
#58
1!
#157
0!
#255
1!
#353
0!
#452
1!
#550
0!
#649
1!
1"
1#
#747
0!
#846
1!
#944
0!
#1025
0%
#1029
1%
#1030
0%
#1056
0&
#1065
0(
#1069
1(
#1070
0(
#1080
0$
#1081
1$
#1082
0$
#1084
1$
#1085
0$
#1114
0'
#1141
1!
#1239
0!
#1338
1!
#1436
0!
0"
#1535
1!
#1633
0!
#1731
1!
1'
#1747
1(
#1748
0(
#1749
1(
#1750
0(
#1753
1(
#1757
0(
#1758
1(
#1798
1$
#1830
0!
#1840
1&
#1856
1%
#1857
0%
#1858
1%
#1859
0%
#1860
1%
#1864
0%
#1865
1%
#1928
1!
#2027
0!
#2125
1!
#2223
0!
#2322
1!
#2420
0!
1"
0#
#2518
1!
#2617
0!
#2715
1!
#2888
0$
#2889
1$
#2894
0$
#2912
0!
#2959
0%
#3010
1!
#3027
0&
#3028
1&
#3029
0&
#3065
0(
#3109
0!
0'
#3207
1!
0"
#3306
0!
#3404
1!
#3502
0!
#3601
1!
#3699
0!
#3731
1'
#3751
1(
#3752
0(
#3753
1(
#3797
1!
#3847
1&
#3871
1%
#3872
0%
#3887
1%
#3896
0!
0%
#3898
1%
#3899
0%
#3900
1%
#3991
1$
#3994
1!
#4092
0!
#4191
1!
1"
1#
#4289
0!
#4388
1!
#4486
0!
#4683
1!
#4781
0!
#4880
1!
#4978
0!
0"
#5018
0%
#5047
0&
#5062
0$
#5063
1$
#5064
0$
#5065
0(
#5067
1$
1(
#5068
0$
#5069
0(
#5077
1!
1$
#5088
0$
#5115
0'
#5175
0!
#5273
1!
#5372
0!
#5470
1!
#5569
0!
#5667
1!
#5725
1'
#5750
1(
#5766
0!
#5810
1$
#5837
1&
#5838
0&
#5840
1&
#5846
0&
#5847
1&
#5854
1%
#5856
0%
#5857
1%
#5864
1!
#5962
1"
0#
0$
#5963
0!
#5991
1$
#6061
1!
#6159
0!
#6258
1!
#6454
0!
#6553
1!
#6651
0!
#6750
1!
0"
#6848
0!
#6881
0$
#6882
1$
#6883
0$
#6947
1!
#6972
0%
#6973
1%
#6974
0%
#7026
0&
#7027
1&
#7028
0&
#7045
0!
#7067
0(
#7109
0'
#7144
1!
#7242
0!
#7340
1!
#7439
0!
#7537
1!
#7636
0!
#7732
1'
#7734
1!
1"
1#
1$
#7736
0$
#7737
1$
#7750
1(
#7799
1&
#7811
1%
#7832
0!
#7931
1!
#8029
0!
#8226
1!
#8325
0!
#8423
1!
#8521
0"
#8522
0!
#8620
1!
#8718
0!
#8817
1!
#8915
0!
#9013
1!
#9031
0%
#9061
0&
#9070
0(
#9085
0$
#9087
1$
#9088
0$
#9112
0!
#9116
0'
#9210
1!
#9309
0!
#9407
1!
#9506
0!
1"
0#
#9604
1!
#9703
0!
#9734
1'
#9735
0'
#9736
1'
#9757
1(
#9759
0(
#9760
1(
#9801
1!
#9849
1&
#9892
1%
#9969
1$
#9998
0!
#10097
1!
#10195
0!
#10293
0"
#10294
1!
#10392
0!
#10490
1!
#10589
0!
#10687
1!
#10785
0!
#10884
1!
#10909
0$
#10979
0%
#10982
0!
#11025
0&
#11068
0(
#11069
1(
#11070
0(
#11081
1!
#11113
0'
#11179
0!
#11278
1!
1"
1#
#11376
0!
#11475
1!
#11573
0!
#11735
1'
#11759
1(
#11770
1!
#11772
1$
#11777
0$
#11778
1$
#11826
1&
#11827
0&
#11828
1&
#11840
1%
#11842
0%
#11843
1%
#11868
0!
#11967
1!
#12065
0!
0"
#12164
1!
#12262
0!
#12361
1!
#12459
0!
#12557
1!
#12656
0!
#12754
1!
#12853
0!
#12951
1!
#13018
0%
#13049
1"
#13050
0!
0#
0$
0&
#13070
0(
#13108
0'
#13148
1!
#13247
0!
#13345
1!
#13542
0!
#13640
1!
#13734
1'
#13739
0!
#13759
1(
#13837
1!
0"
#13869
1&
#13911
1%
#13913
0%
#13914
1%
#13936
0!
#14015
1$
#14023
0$
#14024
1$
#14034
1!
#14133
0!
#14231
1!
#14329
0!
#14428
1!
#14526
0!
#14625
1!
#14723
0!
#14822
1!
1"
1#
#14920
0!
#15019
1!
#15038
0%
#15068
0&
#15074
0(
#15104
0$
#15117
0!
#15120
0'
#15314
1!
#15412
0!
#15511
1!
#15609
0!
0"
#15708
1!
#15735
1'
#15736
0'
#15737
1'
#15759
1(
#15760
0(
#15761
1(
#15806
0!
#15824
1$
#15825
0$
#15832
1$
#15854
1&
#15855
0&
#15858
1&
#15873
1%
#15905
1!
#16003
0!
#16101
1!
#16200
0!
#16298
1!
#16397
0!
#16495
1!
#16594
0!
1"
0#
#16692
1!
#16791
0!
#16885
0$
#16889
1!
1$
#16903
0$
#16904
1$
#16905
0$
#16970
0%
#17027
0&
#17028
1&
#17029
0&
#17073
0(
#17086
0!
#17114
0'
#17185
1!
#17283
0!
#17381
0"
#17382
1!
#17480
0!
#17578
1!
#17677
0!
#17737
1'
#17759
1(
#17775
1!
#17855
1&
#17873
0!
#17907
1%
#17910
0%
#17911
1%
#17972
1!
#17978
1$
#17979
0$
#17981
1$
#18070
0!
#18169
1!
#18267
0!
#18365
1"
#18366
1!
1#
#18464
0!
#18562
1!
#18661
0!
#18858
1!
#18956
0!
#19034
0%
#19054
1!
#19075
0&
#19076
1&
#19077
0&
0(
#19111
0$
#19112
1$
#19113
0$
#19125
0'
#19153
0!
0"
#19251
1!
#19350
0!
#19448
1!
#19547
0!
#19645
1!
#19733
1'
#19744
0!
#19760
1(
#19823
1$
#19842
1!
1&
#19851
1%
#19941
0!
#20039
1!
#20137
1"
0#
#20138
0!
#20236
1!
#20334
0!
#20433
1!
#20630
0!
#20728
1!
#20826
0!
#20904
0$
#20925
1!
0"
#20976
0%
#21024
0!
0&
#21075
0(
#21117
0'
#21122
1!
#21221
0!
#21319
1!
#21417
0!
#21516
1!
#21614
0!
#21713
1!
#21736
1'
#21762
1(
#21811
0!
#21864
1&
#21906
1%
#21909
1"
1#
1$
#21910
1!
#22008
0!
#22106
1!
#22205
0!
#22402
1!
#22500
0!
#22599
1!
#22697
0!
0"
#22796
1!
#22894
0!
#22992
1!
#23041
0%
#23071
0&
#23077
0(
#23079
1(
#23080
0(
#23091
0!
0$
#23123
0'
#23189
1!
#23288
0!
#23386
1!
#23485
0!
#23583
1!
#23681
1"
0#
#23682
0!
#23743
1'
#23765
1(
#23780
1!
#23864
1&
#23878
0!
#23916
1%
#23920
0%
#23921
1%
#23977
1!
#23980
1$
#24174
0!
#24272
1!
#24370
0!
#24469
1!
0"
#24567
0!
