TestResults/scheduler_snap.vcd
$comment 
  OLS Java Client
$end
$date 
  2 Mar, 2024 1:35:46 AM
$end
$version 
  VCD exporter v1.1
$end
$timescale 
  10 us
$end
$scope 
  module logic
$end
$var wire 1 ! Channel-0 $end
$var wire 1 " Channel-1 $end
$var wire 1 # Channel-2 $end
$var wire 1 $ Channel-3 $end
$var wire 1 % Channel-4 $end
$var wire 1 & Channel-5 $end
$var wire 1 ' Channel-6 $end
$var wire 1 ( Channel-7 $end
$upscope $end
$enddefinitions $end
$dumpvars
x!
x"
x#
x$
x%
x&
x'
x(
$end
#0
0!
0"
1#
1$
1%
1&
1'
1(
#16
1!
#55
0!
#95
1!
#134
0!
1"
0#
#173
1!
#213
0!
#252
1!
#331
0!
#370
1!
#410
0!
#449
1!
0"
#488
0!
#528
1!
#567
0!
#606
1!
#646
0!
#685
1!
#725
0!
#764
1!
#803
0!
#822
0$
#843
1!
1"
1#
1$
#882
0!
#910
0%
#922
1!
#925
0(
#930
0&
#931
1&
#932
0&
#947
0'
#961
0!
0$
#1040
1!
#1079
0!
#1118
1!
#1158
0!
0"
#1197
1!
#1237
0!
#1276
1!
#1315
0!
#1355
1!
#1394
0!
#1434
1!
#1473
0!
#1512
1!
#1535
1'
#1536
0'
#1537
1'
#1552
0!
1"
0#
#1587
1(
#1591
1!
#1630
0!
#1670
1!
1&
#1681
1%
#1682
0%
#1686
1%
#1687
0%
#1688
1%
#1721
1$
#1749
0!
#1788
1!
#1827
0!
#1867
1!
0"
#1906
0!
#1945
1!
#1985
0!
#2024
1!
#2064
0!
#2103
1!
#2142
0!
#2182
1!
#2221
0!
#2261
1!
1"
1#
#2300
0!
#2339
1!
#2379
0!
#2458
1!
#2497
0!
#2536
1!
#2576
0!
0"
#2615
1!
#2655
0!
#2694
1!
#2733
0!
#2773
1!
#2812
0!
#2852
1!
#2891
0!
0%
#2899
0&
#2924
0$
0(
#2930
1!
1$
#2938
0$
#2939
1$
#2940
0$
#2941
1$
#2942
0$
#2943
0'
#2970
0!
1"
0#
#3009
1!
#3048
0!
#3088
1!
#3167
0!
#3206
1!
#3245
0!
#3285
1!
0"
#3324
0!
#3364
1!
#3403
0!
#3442
1!
#3482
0!
#3521
1!
#3537
1'
#3561
0!
#3587
1(
#3600
1!
#3639
0!
#3669
1&
#3670
0&
#3671
1&
#3679
1!
1"
1#
1$
1%
#3718
0!
#3757
1!
#3797
0!
#3876
1!
#3915
0!
#3955
1!
#3994
0!
0"
#4033
1!
#4073
0!
#4112
1!
#4152
0!
#4191
1!
#4230
0!
#4270
1!
#4309
0!
#4349
1!
#4388
0!
1"
0#
#4427
1!
#4467
0!
#4506
1!
#4585
0!
#4624
1!
#4663
0!
#4703
1!
0"
#4742
0!
#4782
1!
#4821
0!
0$
#4853
0%
#4860
1!
#4861
1%
#4862
0%
#4865
1%
#4866
0%
#4890
0&
#4891
1&
#4892
0&
#4900
0!
#4922
0(
#4939
1!
#4940
0'
#4941
1'
#4942
0'
#4979
0!
#5018
1!
#5057
0!
#5097
1!
1"
1#
#5136
0!
#5176
1!
#5215
0!
#5294
1!
#5333
0!
#5373
1!
#5412
0!
0"
#5451
1!
#5491
0!
#5530
1!
#5540
1'
#5569
0!
#5587
1(
#5609
1!
1$
#5638
1%
1&
#5639
0%
0&
#5641
1&
#5645
1%
#5646
0%
#5647
1%
#5648
0!
0%
0&
#5651
1&
#5652
0&
#5653
1&
#5658
1%
#5659
0%
#5661
1%
#5687
1!
#5727
0!
#5766
1!
#5806
0!
1"
0#
#5845
1!
#5885
0!
#5924
1!
#6003
0!
#6042
1!
#6081
0!
#6121
1!
0"
#6160
0!
#6200
1!
#6239
0!
#6278
1!
#6318
0!
#6357
1!
#6397
0!
#6436
1!
#6475
0!
#6515
1!
1"
1#
#6554
0!
#6594
1!
#6633
0!
#6712
1!
#6751
0!
#6790
1!
#6830
0!
0"
#6869
1!
#6890
0%
#6891
1%
#6892
0%
#6906
0&
#6909
0!
#6916
0$
#6922
0(
#6939
0'
#6940
1'
#6941
0'
#6948
1!
#6987
0!
#7027
1!
#7066
0!
#7105
1!
#7145
0!
#7184
1!
#7224
0!
1"
0#
#7263
1!
#7303
0!
#7342
1!
#7421
0!
#7460
1!
#7499
0!
#7538
1'
#7539
1!
0"
#7578
0!
#7587
1(
#7618
1!
#7657
0!
#7675
1&
#7676
0&
#7677
1&
#7696
1!
#7697
1%
#7731
1$
#7736
0!
0$
#7741
1$
#7775
1!
#7815
0!
#7854
1!
#7893
0!
#7933
1!
1"
1#
#7972
0!
#8012
1!
#8051
0!
#8130
1!
#8169
0!
#8208
1!
#8248
0!
0"
#8287
1!
#8327
0!
#8366
1!
#8405
0!
#8445
1!
#8484
0!
#8524
1!
#8563
0!
#8602
1!
#8642
0!
1"
0#
#8681
1!
#8721
0!
#8760
1!
#8827
0$
#8828
1$
#8830
0$
#8839
0!
#8856
0%
#8878
1!
#8894
0&
#8895
1&
#8896
0&
#8918
0!
#8923
0(
#8940
0'
#8957
1!
0"
#8996
0!
#9036
1!
#9075
0!
#9114
1!
#9154
0!
#9193
1!
#9232
0!
#9272
1!
#9311
0!
#9351
1!
1"
1#
#9390
0!
#9430
1!
#9469
0!
#9531
1'
#9548
1!
1$
#9581
1(
#9587
0!
#9621
1&
#9622
0&
#9625
1%
1&
#9626
0%
0&
#9627
1!
1%
1&
#9666
0!
0"
#9705
1!
#9745
0!
#9784
1!
#9824
0!
#9863
1!
#9902
0!
#9942
1!
#9981
0!
#10021
1!
#10060
0!
1"
0#
#10099
1!
#10139
0!
#10178
1!
#10257
0!
#10296
1!
#10336
0!
#10375
1!
0"
#10414
0!
#10454
1!
#10493
0!
#10532
1!
#10572
0!
#10611
1!
#10651
0!
#10690
1!
#10729
0!
#10769
1!
1"
1#
#10808
0!
#10848
1!
#10887
0!
#10906
0%
#10907
1%
#10910
0%
#10916
0&
#10917
1&
#10920
0&
#10921
1&
#10922
0&
#10925
0(
#10944
0'
#10945
1'
#10946
0'
#10950
0$
#10951
1$
#10953
0$
#10966
1!
#11005
0!
#11045
1!
#11084
0!
0"
#11123
1!
#11163
0!
#11202
1!
#11242
0!
#11281
1!
#11320
0!
#11360
1!
#11399
0!
#11439
1!
#11478
0!
1"
0#
#11517
1!
#11539
1'
#11557
0!
#11587
1(
#11596
1!
#11658
1&
#11659
0&
#11661
1&
#11675
0!
#11699
1%
#11700
0%
#11701
1%
#11714
1!
#11721
1$
#11753
0!
#11793
1!
0"
#11832
0!
#11872
1!
#11911
0!
#11950
1!
#11990
0!
#12029
1!
#12069
0!
#12108
1!
#12147
0!
#12187
1!
1"
1#
#12226
0!
#12266
1!
#12305
0!
#12384
1!
#12423
0!
#12463
1!
#12502
0!
0"
#12541
1!
#12581
0!
#12620
1!
#12660
0!
#12699
1!
#12738
0!
#12778
1!
#12817
0!
#12857
1!
#12896
0!
1"
0#
0$
0%
0&
#12923
0(
#12935
1!
#12942
0'
#12975
0!
#13014
1!
#13093
0!
#13133
1!
#13172
0!
#13211
1!
#13212
0"
#13251
0!
#13290
1!
#13330
0!
#13369
1!
#13408
0!
#13448
1!
#13487
0!
#13527
1!
#13537
1'
#13566
0!
#13587
1(
#13605
1!
1"
1#
1$
1%
1&
#13606
0%
#13607
1%
#13645
0!
#13684
1!
#13724
0!
#13802
1!
#13842
0!
#13881
1!
#13920
0!
#13921
0"
#13960
1!
#13999
0!
#14039
1!
#14078
0!
#14117
1!
#14157
0!
#14196
1!
#14236
0!
#14275
1!
#14314
0!
1"
#14315
0#
#14354
1!
#14393
0!
#14432
1!
#14511
0!
#14551
1!
#14590
0!
#14629
1!
0"
#14669
0!
#14708
1!
#14748
0!
#14787
1!
#14826
0!
0$
#14856
0%
#14866
1!
#14894
0&
#14895
1&
#14896
0&
#14905
0!
#14922
0(
#14940
0'
#14945
1!
#14984
0!
#15023
1!
#15024
1"
1#
#15063
0!
#15102
1!
#15142
0!
#15221
1!
#15260
0!
#15299
1!
#15339
0!
0"
#15378
1!
#15417
0!
#15457
1!
#15496
0!
#15536
1!
#15541
1'
#15575
0!
#15589
1(
#15601
1$
#15602
0$
#15604
1$
#15606
0$
#15607
1$
#15614
1!
#15631
1&
#15632
0&
#15635
1%
1&
#15636
0%
0&
#15637
1&
#15639
1%
#15640
0%
#15641
1%
#15654
0!
#15656
0%
#15657
1%
#15693
1!
#15733
0!
1"
0#
0$
#15737
1$
#15772
1!
#15811
0!
#15851
1!
#15930
0!
#15969
1!
#16008
0!
#16048
1!
0"
#16087
0!
#16127
1!
#16166
0!
#16205
1!
#16245
0!
#16284
1!
#16324
0!
#16363
1!
#16402
0!
#16442
1!
1"
1#
#16481
0!
#16520
1!
#16560
0!
#16639
1!
#16678
0!
#16717
1!
#16757
0!
0"
#16796
1!
#16835
0!
#16875
1!
#16896
0%
#16910
0&
#16911
1&
#16912
0&
#16914
0!
#16922
0$
0(
#16925
1$
#16926
0$
#16942
0'
#16954
1!
#16993
0!
#17032
1!
#17072
0!
#17111
1!
#17150
1"
#17151
0!
0#
#17190
1!
#17229
0!
#17269
1!
#17348
0!
#17387
1!
#17426
0!
#17466
1!
0"
#17505
0!
#17541
1'
#17545
1!
#17584
0!
#17587
1(
#17623
1!
#17645
1&
#17646
0&
#17658
1&
#17660
0&
#17661
1&
#17663
0!
0&
#17671
1&
#17673
0&
#17674
1&
#17676
0&
#17677
1&
#17701
1%
#17702
1!
#17729
1$
#17742
0!
#17781
1!
#17820
0!
#17860
1!
1"
1#
#17899
0!
#17938
1!
#17978
0!
#18056
1!
#18096
0!
#18135
1!
#18175
0!
0"
#18214
1!
#18254
0!
#18293
1!
#18332
0!
#18372
1!
#18411
0!
#18451
1!
#18490
0!
#18529
1!
#18569
0!
1"
0#
#18608
1!
#18647
0!
#18687
1!
#18766
0!
#18805
1!
#18833
0$
#18845
0!
#18856
0%
#18857
1%
#18859
0%
#18884
1!
0"
#18886
0&
#18923
0!
0(
#18936
0'
#18937
1'
#18940
0'
#18963
1!
#19002
0!
#19041
1!
#19081
0!
#19120
1!
#19160
0!
#19199
1!
#19238
0!
#19278
1!
1"
1#
#19317
0!
#19357
1!
#19396
0!
#19475
1!
#19514
0!
#19532
1'
#19553
1$
#19554
1!
#19581
1(
#19583
0(
#19584
1(
#19593
0!
0"
0$
#19595
1$
#19633
1!
1&
#19634
1%
#19672
0!
#19711
1!
#19751
0!
#19790
1!
#19829
0!
#19869
1!
#19908
0!
#19948
1!
#19987
0!
1"
0#
#20026
1!
#20066
0!
#20105
1!
#20184
0!
#20223
1!
#20263
0!
#20302
1!
0"
#20342
0!
#20381
1!
#20420
0!
#20460
1!
#20499
0!
#20539
1!
#20578
0!
#20617
1!
#20657
0!
#20696
1!
1#
#20697
1"
#20736
0!
#20775
1!
#20814
0!
#20893
1!
#20916
0%
#20918
1%
#20919
0%
#20921
1%
#20922
0%
#20923
0(
#20924
1(
#20926
0&
0(
#20928
1&
1(
#20929
0&
0(
#20931
1&
#20932
0!
0&
#20943
0$
#20944
1$
#20946
0$
0'
#20972
1!
#21011
0!
0"
#21051
1!
#21090
0!
#21130
1!
#21169
0!
#21208
1!
#21248
0!
#21287
1!
#21327
0!
#21366
1!
#21405
0!
1"
#21406
0#
#21445
1!
#21484
0!
#21524
1!
#21537
1'
#21581
1(
#21582
0(
#21585
1(
#21586
0(
#21587
1(
#21602
0!
#21642
1!
#21661
1&
#21663
0&
#21664
1&
#21666
0&
#21667
1&
#21681
0!
#21701
1%
#21703
0%
#21704
1%
#21706
0%
#21707
1%
#21721
1!
0"
#21738
1$
#21760
0!
#21799
1!
#21839
0!
#21878
1!
#21917
0!
#21957
1!
#21996
0!
#22035
1!
#22075
0!
#22114
1!
1"
#22115
1#
#22154
0!
#22193
1!
#22233
0!
#22311
1!
#22351
0!
#22390
1!
#22430
0!
0"
#22469
1!
#22508
0!
#22548
1!
#22587
0!
#22627
1!
#22666
0!
#22705
1!
#22745
0!
#22784
1!
#22824
0!
1"
0#
0$
#22853
0%
#22863
1!
#22886
0&
#22887
1&
#22889
0&
#22891
1&
#22892
0&
#22902
0!
#22923
0(
#22940
0'
#22941
1'
#22942
1!
0'
#23020
0!
#23060
1!
#23099
0!
#23139
1!
0"
#23178
0!
#23217
1!
#23257
0!
#23296
1!
#23336
0!
#23375
1!
#23414
0!
#23454
1!
#23493
0!
#23533
1!
1"
1#
1$
1'
#23572
0!
#23581
1(
#23583
0(
#23584
1(
#23586
0(
#23587
1(
#23596
0(
#23597
1(
#23610
1%
1&
#23611
1!
#23651
0!
#23730
1!
#23769
0!
#23808
1!
#23848
0!
0"
#23887
1!
#23926
0!
#23966
1!
#24005
0!
#24045
1!
#24084
0!
#24123
1!
#24163
0!
#24202
1!
#24242
0!
1"
0#
#24281
1!
#24320
0!
#24360
1!
#24438
0!
#24478
1!
#24517
0!
#24556
1!
#24557
0"
